solid OpenSCAD_Model
  facet normal -0 0 1
    outer loop
      vertex 0 200 300
      vertex 1 0 300
      vertex 1 200 300
    endloop
  endfacet
  facet normal 0 0 1
    outer loop
      vertex 1 0 300
      vertex 0 200 300
      vertex 0 0 300
    endloop
  endfacet
  facet normal 0 0 -1
    outer loop
      vertex 0 0 0
      vertex 1 200 0
      vertex 1 0 0
    endloop
  endfacet
  facet normal -0 0 -1
    outer loop
      vertex 1 200 0
      vertex 0 0 0
      vertex 0 200 0
    endloop
  endfacet
  facet normal 0 -1 0
    outer loop
      vertex 0 0 0
      vertex 1 0 300
      vertex 0 0 300
    endloop
  endfacet
  facet normal 0 -1 -0
    outer loop
      vertex 1 0 300
      vertex 0 0 0
      vertex 1 0 0
    endloop
  endfacet
  facet normal 1 -0 0
    outer loop
      vertex 1 0 300
      vertex 1 200 0
      vertex 1 200 300
    endloop
  endfacet
  facet normal 1 0 0
    outer loop
      vertex 1 200 0
      vertex 1 0 300
      vertex 1 0 0
    endloop
  endfacet
  facet normal 0 1 -0
    outer loop
      vertex 1 200 0
      vertex 0 200 300
      vertex 1 200 300
    endloop
  endfacet
  facet normal 0 1 0
    outer loop
      vertex 0 200 300
      vertex 1 200 0
      vertex 0 200 0
    endloop
  endfacet
  facet normal -1 0 0
    outer loop
      vertex 0 0 0
      vertex 0 200 300
      vertex 0 200 0
    endloop
  endfacet
  facet normal -1 -0 0
    outer loop
      vertex 0 200 300
      vertex 0 0 0
      vertex 0 0 300
    endloop
  endfacet
endsolid OpenSCAD_Model

